%YAML 1.1
%TAG !u! tag:unity3d.com,2011:
--- !u!21 &2100000
Material:
  serializedVersion: 6
  m_ObjectHideFlags: 0
  m_PrefabParentObject: {fileID: 0}
  m_PrefabInternal: {fileID: 0}
  m_Name: mat_water_surface
  m_Shader: {fileID: 4800000, guid: 5af3fd41baf694e4db80b54ea540749f, type: 3}
  m_ShaderKeywords: SUIMONO_CAUST_ON SUIMONO_DYNREFL_ON SUIMONO_REFL_OFF SUIMONO_TESS_ON
    SUIMONO_TRANS_ON
  m_LightmapFlags: 5
  m_EnableInstancingVariants: 0
  m_DoubleSidedGI: 0
  m_CustomRenderQueue: -1
  stringTagMap: {}
  disabledShaderPasses: []
  m_SavedProperties:
    serializedVersion: 3
    m_TexEnvs:
    - _BlurRamp:
        m_Texture: {fileID: 2800000, guid: e607ea0d8431dc64c8f345a02a1028e9, type: 3}
        m_Scale: {x: 1, y: 1}
        m_Offset: {x: 0, y: 0}
    - _CubeBDRF:
        m_Texture: {fileID: 8900000, guid: 01c62ce94e46dcf4ea217e771c6da1b2, type: 3}
        m_Scale: {x: 1, y: 1}
        m_Offset: {x: 0, y: 0}
    - _CubeMobile:
        m_Texture: {fileID: 8900000, guid: c27d2f9a7fe1df7448a59cd7e8306390, type: 3}
        m_Scale: {x: 1, y: 1}
        m_Offset: {x: 0, y: 0}
    - _CubeTex:
        m_Texture: {fileID: 8900000, guid: c27d2f9a7fe1df7448a59cd7e8306390, type: 3}
        m_Scale: {x: 1, y: 1}
        m_Offset: {x: 0, y: 0}
    - _DepthRamp:
        m_Texture: {fileID: 2800000, guid: aa1f666bea9a5b2409ff3dcfc008a57c, type: 3}
        m_Scale: {x: 1, y: 1}
        m_Offset: {x: 0, y: 0}
    - _FlowMap:
        m_Texture: {fileID: 0}
        m_Scale: {x: 1, y: 1}
        m_Offset: {x: 0, y: 0}
    - _FoamOverlay:
        m_Texture: {fileID: 2800000, guid: dd5f830482b013a43b967ea68de614d7, type: 3}
        m_Scale: {x: 0.781425, y: 0.781425}
        m_Offset: {x: 0, y: 0}
    - _FoamRamp:
        m_Texture: {fileID: 2800000, guid: 01757909dcbf805408fe7867004a31a3, type: 3}
        m_Scale: {x: 1, y: 1}
        m_Offset: {x: 0, y: 0}
    - _FoamTex:
        m_Texture: {fileID: 2800000, guid: 14c55ed649175884784db6c178f4e654, type: 3}
        m_Scale: {x: 1, y: 1}
        m_Offset: {x: 0, y: 0}
    - _HeightTex:
        m_Texture: {fileID: 2800000, guid: 51323bc64857e644fac7400eb7305b36, type: 3}
        m_Scale: {x: 2, y: 2}
        m_Offset: {x: 0, y: 0}
    - _HeightTexD:
        m_Texture: {fileID: 2800000, guid: 5068c41d8b2d8474a855de152aea3721, type: 3}
        m_Scale: {x: 1, y: 1}
        m_Offset: {x: 0, y: 0}
    - _HeightTexR:
        m_Texture: {fileID: 2800000, guid: 17e80c508914f384083dc7e9d438652f, type: 3}
        m_Scale: {x: 1, y: 1}
        m_Offset: {x: 0, y: 0}
    - _MainTex:
        m_Texture: {fileID: 0}
        m_Scale: {x: 1, y: 1}
        m_Offset: {x: 0, y: 0}
    - _MaskTex:
        m_Texture: {fileID: 0}
        m_Scale: {x: 1, y: 1}
        m_Offset: {x: 0, y: 0}
    - _NormalTex:
        m_Texture: {fileID: 2800000, guid: 48e29dc2e9488474081bc20a42a364b9, type: 3}
        m_Scale: {x: 1, y: 1}
        m_Offset: {x: 0, y: 0}
    - _NormalTexD:
        m_Texture: {fileID: 2800000, guid: fdd39131993ce804da86a2e71c17a742, type: 3}
        m_Scale: {x: 1, y: 1}
        m_Offset: {x: 0, y: 0}
    - _NormalTexR:
        m_Texture: {fileID: 2800000, guid: fb77700eb10ac344db495df815b29823, type: 3}
        m_Scale: {x: 1, y: 1}
        m_Offset: {x: 0, y: 0}
    - _NormalTexS:
        m_Texture: {fileID: 2800000, guid: 48e29dc2e9488474081bc20a42a364b9, type: 3}
        m_Scale: {x: 1, y: 1}
        m_Offset: {x: 0, y: 0}
    - _OceanBlendTex:
        m_Texture: {fileID: 2800000, guid: e18972d51c4910d499b05f09d48dc145, type: 3}
        m_Scale: {x: 1, y: 1}
        m_Offset: {x: 0, y: 0}
    - _Ramp2D:
        m_Texture: {fileID: 0}
        m_Scale: {x: 1, y: 1}
        m_Offset: {x: 0, y: 0}
    - _ReflectionTex:
        m_Texture: {fileID: 0}
        m_Scale: {x: 1, y: 1}
        m_Offset: {x: 0, y: 0}
    - _Surface1:
        m_Texture: {fileID: 2800000, guid: 51323bc64857e644fac7400eb7305b36, type: 3}
        m_Scale: {x: 4.62, y: 4.62}
        m_Offset: {x: 0, y: 0.038000003}
    - _Surface2:
        m_Texture: {fileID: 2800000, guid: 51323bc64857e644fac7400eb7305b36, type: 3}
        m_Scale: {x: 5.25, y: 5.25}
        m_Offset: {x: 0, y: 0}
    - _WaveLargeTex:
        m_Texture: {fileID: 2800000, guid: 48e29dc2e9488474081bc20a42a364b9, type: 3}
        m_Scale: {x: 5.25, y: 5.25}
        m_Offset: {x: 0, y: 1}
    - _WaveMap:
        m_Texture: {fileID: 0}
        m_Scale: {x: 1, y: 1}
        m_Offset: {x: 0, y: 0}
    - _WaveRamp:
        m_Texture: {fileID: 2800000, guid: 7d47d30a7e6fff544a72f826670ef31b, type: 3}
        m_Scale: {x: 1, y: 1}
        m_Offset: {x: 0, y: 0}
    - _WaveTex:
        m_Texture: {fileID: 2800000, guid: 9e0b039b60bba5c4ea73849d69af386a, type: 3}
        m_Scale: {x: 0, y: 0}
        m_Offset: {x: -0, y: -0}
    - _testTransTex:
        m_Texture: {fileID: 8400000, guid: 4cbb053dd78893346b31535310230dc4, type: 2}
        m_Scale: {x: 1, y: 1}
        m_Offset: {x: 0, y: 0}
    m_Floats:
    - _AnimSpeed: 1
    - _BlurSpread: 0
    - _BumpStrength: 0.084
    - _CausticsFade: 61.878002
    - _CenterHeight: 1
    - _DepthAmt: 45
    - _DepthFade: 12.8936
    - _DetailHeight: 1.63
    - _Displacement: 1
    - _EdgeBlend: 1
    - _EdgeFade: 73.36
    - _EdgeFoamFade: 105.164955
    - _EdgeSpread: 0.02
    - _FlowScale: 6.0895004
    - _FoamFade: 1
    - _FoamHeight: 0
    - _FoamSpread: 0.85
    - _HeightFoamAmount: 0
    - _HeightFoamAmt: 0.955
    - _HeightFoamHeight: 0.083
    - _HeightFoamSpread: 0.276
    - _MaskAmt: 8
    - _MasterScale: 2.25
    - _MaxVariance: 8.299999
    - _NormalStrength: 1
    - _ReflBlend: 0.015
    - _ReflBlur: 0.01
    - _ReflDist: 200
    - _ReflectStrength: 1
    - _RefrScale: 2.25
    - _RefrSpeed: 15.2
    - _RefrStrength: 0
    - _RefractFade: 1
    - _RefractStrength: 0.5
    - _RimPower: 1
    - _ShallowFade: 45.6943
    - _ShallowFoamAmt: 1
    - _ShoreAmt: -3.5
    - _ShoreAmtDk: 1
    - _SpecScatterAmt: 0.5
    - _SpecScatterWidth: 0.1
    - _Tess: 28
    - _TideAmount: 0.3
    - _TideSpread: 0.513
    - _UnderFogDist: -0.054
    - _UnderReflDist: -4.28
    - _WaveHeight: 0.63
    - _WaveScale: 0.605
    - _WaveShoreHeight: 0
    - _castshadowEnabled: 1
    - _castshadowFade: 1
    - _castshadowStrength: 1
    - _foamScale: 10.54
    - _maxDist: 116
    - _minDist: -180
    - _reflecTerm: 0
    - _shorelineFrequency: 0.5
    - _shorelineHeight: 0.397
    - _shorelineScale: 3.55
    - _shorelineSpeed: 4
    - _suimono_DeepWaveHeight: 0.945
    - _suimono_DetailHeight: 1.63
    - _suimono_detScale: 0.19
    - _suimono_uv2x: 0
    - _suimono_uv2y: 0
    - _suimono_uv3x: 0
    - _suimono_uv3y: 0
    - _suimono_uv4x: 0
    - _suimono_uv4y: 0
    - _suimono_uv5x: 0
    - _suimono_uv5y: 0
    - _suimono_uv6x: 0
    - _suimono_uv6y: 0
    - _suimono_uv7x: 0
    - _suimono_uv7y: 0
    - _suimono_uv8x: 1
    - _suimono_uv8y: 1
    - _suimono_uvx: 0
    - _suimono_uvy: 0
    - _temp: 1
    - _useDynamicReflections: 1
    - normalShore: 1
    m_Colors:
    - _BlendColor: {r: 0.36, g: 1, b: 0.867, a: 0.22}
    - _CausticsColor: {r: 1, g: 1, b: 1, a: 1}
    - _Color: {r: 1, g: 1, b: 1, a: 1}
    - _DepthColor: {r: 0, g: 0, b: 0, a: 0}
    - _DepthColorB: {r: 1, g: 0.44, b: 0, a: 1}
    - _DepthColorG: {r: 1, g: 1, b: 1, a: 0}
    - _DepthColorR: {r: 1, g: 1, b: 1, a: 0}
    - _DynReflColor: {r: 1, g: 1, b: 1, a: 0.5}
    - _EdgeColor: {r: 0.73, g: 1, b: 0.94, a: 0}
    - _FoamColor: {r: 0.912, g: 0.874, b: 0.791, a: 1}
    - _HighColor: {r: 0, g: 0, b: 0, a: 0.9}
    - _LowColor: {r: 0.34, g: 0.26, b: 0.18, a: 0.15}
    - _OverlayColor: {r: 0, g: 0, b: 0, a: 0}
    - _ReflectionColor: {r: 1, g: 1, b: 1, a: 0.435}
    - _SSSColor: {r: 0, g: 0.147, b: 0.007, a: 1}
    - _SpecColorH: {r: 1, g: 0.48, b: 0, a: 1}
    - _SpecColorL: {r: 1, g: 0, b: 0, a: 1}
    - _SpecularColor: {r: 1, g: 1, b: 1, a: 1}
    - _TideColor: {r: 0.24, g: 0.34, b: 0.32, a: 0}
    - _TintColor: {r: 0.5, g: 0.5, b: 0.5, a: 0.5}
    - _UnderColor: {r: 1, g: 0.62, b: 0.17, a: 1}
    - _UnderwaterColor: {r: 1, g: 1, b: 1, a: 1}
    - _castshadowColor: {r: 0, g: 1, b: 0.79, a: 0.18}
    - _depthColor: {r: 0.16, g: 0.281, b: 0.382, a: 1}
    - _shallowColor: {r: 0.208, g: 0.373, b: 0.441, a: 0.784}
